Data Cleaning
…
print(category_summary)

## # A tibble: 488 × 2
##    categories             count
##    <chr>                  <int>
##  1 Restaurants            12641
##  2 Food                    3853
##  3 Sandwiches              2151
##  4 Pizza                   2128
##  5 Nightlife               1936
##  6 Bars                    1854
##  7 American (Traditional)  1779
##  8 American (New)          1539
##  9 Italian                 1433
## 10 Breakfast & Brunch      1425
## # ℹ 478 more rows
…
print(mergedPA)

## # A tibble: 7,801 × 22
##    name          address city  postal_code latitude longitude stars review_count
##    <chr>         <chr>   <chr> <chr>          <dbl>     <dbl> <dbl>        <int>
##  1 $5 Fresh Bur… 2100 W… phil… 19145           39.9     -75.2   5              5
##  2 &pizza - UPe… 3925 W… phil… 19104           40.0     -75.2   4             61
##  3 &pizza - Wal… 430 Wa… phil… 19102           39.9     -75.2   4.5          364
##  4 &pizza - Wil… 2500 W… will… 19090           40.1     -75.1   4.5           20
##  5 'feine        812 Fa… cons… 19428           40.1     -75.3   4.5          166
##  6 1 Stop Pizza  3701 G… phil… 19140           40.0     -75.2   3.5            8
##  7 1010 Pizza &… 1010 W… media 19063           39.9     -75.4   4             73
##  8 1100 Social   1100 P… phil… 19148           39.9     -75.2   3             42
##  9 118 North     118 N … wayne 19087           40.0     -75.4   3.5           43
## 10 1201 Bar      1201 S… phil… 19146           39.9     -75.2   3.5            5
## # ℹ 7,791 more rows
## # ℹ 14 more variables: attributes <df[,39]>, hours <df[,7]>, categories <chr>,
## #   county <chr>, Monday_hours <dbl>, Tuesday_hours <dbl>,
## #   Wednesday_hours <dbl>, Thursday_hours <dbl>, Friday_hours <dbl>,
## #   Saturday_hours <dbl>, Sunday_hours <dbl>, Total_hours <dbl>,
## #   Weekday_hours <dbl>, Weekend_hours <dbl>
…
